<svg width="49" height="53" viewBox="0 0 49 53" fill="none" xmlns="http://www.w3.org/2000/svg">
<path d="M3.0625 8.83334V12.1458C3.0625 21.3104 7.57458 29.3267 14.2917 33.7875V44.1667H44.9167V39.75C44.9167 33.8758 34.0346 30.9167 28.5833 30.9167H28.0729C18.375 30.9167 10.2083 22.0833 10.2083 12.1458V8.83334M28.5833 8.83334C26.4174 8.83334 24.3402 9.764 22.8086 11.4206C21.2771 13.0771 20.4167 15.3239 20.4167 17.6667C20.4167 20.0094 21.2771 22.2562 22.8086 23.9128C24.3402 25.5694 26.4174 26.5 28.5833 26.5C30.7493 26.5 32.8265 25.5694 34.358 23.9128C35.8896 22.2562 36.75 20.0094 36.75 17.6667C36.75 15.3239 35.8896 13.0771 34.358 11.4206C32.8265 9.764 30.7493 8.83334 28.5833 8.83334Z" fill="#C2BD4A"/>
</svg>
